{
   "msg": "查询成功",
   "data": {
    "endRow" : 20,
    "hasNextPage" : true,
    "pages" : 7,
    "pageNum" : 1,
    "lastPage" : 7,
    "navigatepageNums" : [
      1,
      2,
      3,
      4,
      5,
      6,
      7
    ],
    "isLastPage" : false,
    "total" : 126,
    "orderBy" : null,
    "nextPage" : 2,
    "size" : 20,
    "hasPreviousPage" : false,
    "navigatePages" : 8,
    "startRow" : 1,
    "prePage" : 0,
    "list" : [
      {
        "examId" : "abd754d5a6c64141aa9d7900ceb168f8",
        "isAuth" : null,
        "endTime" : "2099-12-31",
        "id" : "f753f9934c60427fadfba664229a8487",
        "hasAuth" : false,
        "title" : "2025年军队文职人员招聘《公共科目》题库",
        "subNumber" : 7766,
        "hasBuy" : 1,
        "endTimeMonth" : 999999,
      },
     {
        "examId" : "abd754d5a6c64141aa9d7900ceb168f8",
        "isAuth" : null,
        "endTime" : "2099-12-31",
        "id" : "e8d24856c8864fe9bd79d8f3bff03820",
        "hasAuth" : false,
        "title" : "2025年军队文职人员招聘《管理学》题库",
        "subNumber" : 4652,
        "hasBuy" : 1,
        "endTimeMonth" : 999999,
      },
      {
        "examId" : "abd754d5a6c64141aa9d7900ceb168f8",
        "isAuth" : null,
        "endTime" : "2099-12-31",
        "id" : "119e2a44a30649dbbbbaab5d748f4c21",
        "hasAuth" : false,
        "title" : "2025年军队文职人员招聘《会计》题库",
        "subNumber" : 7081,
        "hasBuy" : 1,
        "endTimeMonth" : 999999,
      },
      {
        "examId" : "abd754d5a6c64141aa9d7900ceb168f8",
        "isAuth" : null,
        "endTime" : "2099-12-31",
        "id" : "18ba5872a340402ebedea746e530edce",
        "hasAuth" : false,
        "title" : "2025年军队文职人员招聘《审计》题库",
        "subNumber" : 3900,
        "hasBuy" : 1,
        "endTimeMonth" : 999999,
      },
      {
        "examId" : "abd754d5a6c64141aa9d7900ceb168f8",
        "isAuth" : null,
        "endTime" : "2099-12-31",
        "id" : "99a54d30389a441fa384630136525b20",
        "hasAuth" : false,
        "title" : "2025年军队文职人员招聘《经济学》题库",
        "subNumber" : 4368,
        "hasBuy" : 1,
        "endTimeMonth" : 999999,
      },
      {
        "examId" : "abd754d5a6c64141aa9d7900ceb168f8",
        "isAuth" : null,
        "endTime" : "2099-12-31",
        "id" : "828fc8af70f4417f8edffbda2f0e9d17",
        "hasAuth" : false,
        "title" : "2025年军队文职人员招聘《法学》题库",
        "subNumber" : 4350,
        "hasBuy" : 1,
        "endTimeMonth" : 99999,
      },
      {
        "examId" : "abd754d5a6c64141aa9d7900ceb168f8",
        "isAuth" : null,
        "endTime" : "2099-12-31",
        "id" : "eb9fab1e2b18456bbb1b2f230594f50d",
        "hasAuth" : false,
        "title" : "2025年军队文职人员招聘《教育学》题库",
        "subNumber" : 5338,
        "hasBuy" : 1,
        "endTimeMonth" : 99999,
      },
      {
        "examId" : "abd754d5a6c64141aa9d7900ceb168f8",
        "isAuth" : null,
        "endTime" : "2099-12-31",
        "id" : "c24a543ea41642eaba682bfe3ffa6c6f",
        "hasAuth" : false,
        "title" : "2025年军队文职人员招聘《体育》题库",
        "subNumber" : 2733,
        "hasBuy" : 1,
        "endTimeMonth" : 99999,
      },

      {
        "examId" : "abd754d5a6c64141aa9d7900ceb168f8",
        "isAuth" : null,
        "endTime" : "2099-12-31",
        "id" : "0a8c7879d0d84e048aaf99b5db27f9d6",
        "hasAuth" : false,
        "title" : "2025年军队文职人员招聘《新闻》题库",
        "subNumber" : 3723,
        "hasBuy" : 1,
        "endTimeMonth" : 99999,
      },
      {
        "examId" : "abd754d5a6c64141aa9d7900ceb168f8",
        "isAuth" : null,
        "endTime" : "2099-12-31",
        "id" : "01f87cd7dcb2420e9ffaef35a36cca57",
        "hasAuth" : false,
        "title" : "2025年军队文职人员招聘《出版》题库",
        "subNumber" : 4275,
        "hasBuy" : 1,
        "endTimeMonth" : 99999,
      },
      {
        "examId" : "abd754d5a6c64141aa9d7900ceb168f8",
        "isAuth" : null,
        "endTime" : "2099-12-31",
        "id" : "fbfd36fa003745f2996857c412d04641",
        "hasAuth" : false,
        "title" : "2025年军队文职人员招聘《英语》题库",
        "subNumber" : 1939,
        "hasBuy" : 1,
        "endTimeMonth" : 99999,
      },
      {
        "examId" : "abd754d5a6c64141aa9d7900ceb168f8",
        "isAuth" : null,
        "endTime" : "2099-12-31",
        "normalPrice" : 150,
        "id" : "e688a6feebf44afcbcf364c1f6f82c89",
        "hasAuth" : false,
        "title" : "2025年军队文职人员招聘《数学1》题库",
        "subNumber" : 2387,
        "hasBuy" : 1,
        "endTimeMonth" : 99999,
      },
      {
        "examId" : "abd754d5a6c64141aa9d7900ceb168f8",
        "isAuth" : null,
        "endTime" : "2099-12-31",
        "id" : "76546356622a4caeab3a771c4815a3b1",
        "hasAuth" : false,
        "title" : "2025年军队文职人员招聘《数学2》题库",
        "subNumber" : 2043,
        "hasBuy" : 1,
        "endTimeMonth" : 99999,
      },
      {
        "examId" : "abd754d5a6c64141aa9d7900ceb168f8",
        "isAuth" : null,
        "endTime" : "2099-12-31",
        "id" : "f2c7db3507414224992e9a03dfea3309",
        "hasAuth" : false,
        "title" : "2025年军队文职人员招聘《物理》题库",
        "subNumber" : 829,
        "hasBuy" : 1,
        "endTimeMonth" : 99999,
      },
      {
        "examId" : "abd754d5a6c64141aa9d7900ceb168f8",
        "isAuth" : null,
        "endTime" : "2099-12-31",
        "id" : "29643498b1c542a097bba3712a7b4216",
        "hasAuth" : false,
        "title" : "2025年军队文职人员招聘《数学3》题库",
        "subNumber" : 1549,
        "hasBuy" : 1,
        "endTimeMonth" : 99999
      },
      {
        "examId" : "abd754d5a6c64141aa9d7900ceb168f8",
        "isAuth" : null,
        "endTime" : "2099-12-31",
        "id" : "184750c5926b4188bac2bffb4eacd10e",
        "hasAuth" : false,
        "title" : "2025年军队文职人员招聘《化学》题库",
        "subNumber" : 962,
        "hasBuy" : 1,
        "endTimeMonth" : 99999,
      },
      {
        "examId" : "abd754d5a6c64141aa9d7900ceb168f8",
        "isAuth" : null,
        "endTime" : "2099-12-31",
        "id" : "b8ed32cedf55467e9795fd9244617eff",
        "hasAuth" : false,
        "title" : "2025年军队文职人员招聘《临床医学》题库",
        "subNumber" : 8545,
        "hasBuy" : 1,
        "endTimeMonth" : 99999,
      },
      {
        "examId" : "abd754d5a6c64141aa9d7900ceb168f8",
        "isAuth" : null,
        "endTime" : "2099-12-31",
        "id" : "475bdaf82e98459c87980fd7845e6be5",
        "hasAuth" : false,
        "title" : "2025年军队文职人员招聘《中医学》题库",
        "subNumber" : 6108,
        "hasBuy" : 1,
        "endTimeMonth" : 99999,
      },
      {
        "examId" : "abd754d5a6c64141aa9d7900ceb168f8",
        "isAuth" : null,
        "endTime" : "2099-12-31",
        "id" : "2e62743a61bc4cc7858ec2638bacb7c8",
        "hasAuth" : false,
        "title" : "2025年军队文职人员招聘《药学》题库",
        "subNumber" : 6773,
        "hasBuy" : 1,
        "endTimeMonth" : 99999,
      },
      {
        "examId" : "abd754d5a6c64141aa9d7900ceb168f8",
        "isAuth" : null,
        "endTime" : "2099-12-31",
        "id" : "d69a83e96e684b5aa0d2ea1f08a341d2",
        "hasAuth" : false,
        "title" : "2025年军队文职人员招聘《中药学》题库",
        "subNumber" : 8009,
        "hasBuy" : 1,
        "endTimeMonth" : 99999,
      }
    ],
    "firstPage" : 1,
    "isFirstPage" : true,
    "pageSize" : 20
  },
  "code" : 0
  }